{
    "Version": "2012-10-17",
    "Statement": [
        {
            "Sid": "DenyBasedOnArnLambda",
            "Effect": "Deny",
            "Action": [
                "lambda:Delete*",
                "lambda:Update*",
                "lambda:Tag*",
                "lambda:Untag*",
                "lambda:PublishVersion"
            ],
            "NotResource": "arn:aws:lambda::131313131313:function/awsb*"
        },
        {
            "Sid": "DenyBasedOnArnSNS",
            "Effect": "Deny",
            "Action": [
                "sns:Delete*",
                "sns:Add*",
                "sns:Remove*",
                "sns:Set*",
                "sns:Confirm*"
            ],
            "NotResource": "arn:aws:sns:eu-west-1:131313131313:awsb*"
        }
    ]
}
